{
	"info": {
		"_postman_id": "88f24fec-cda2-4890-8495-3319687ce57f",
		"name": "desafio-tecnico-backend",
		"description": "- Exemplo de requisição de criação de regra de atendimento para cada um dos 3 casos de exemplo listados na seção \"Cadastro de regra de atendimento\";\n- Exemplo de requisição de remoção de regra;\n- Exemplo de requisição de listagem de regras;\n- Exemplo de requisição de listagem de horários;\n",
		"schema": "https://schema.getpostman.com/json/collection/v2.1.0/collection.json"
	},
	"item": [
		{
			"name": "Remoção de regra de atendimento",
			"request": {
				"method": "DELETE",
				"header": [],
				"body": {
					"mode": "raw",
					"raw": ""
				},
				"url": {
					"raw": "localhost:3000/cadastro?id=-1",
					"host": [
						"localhost"
					],
					"port": "3000",
					"path": [
						"cadastro"
					],
					"query": [
						{
							"key": "id",
							"value": "-1"
						}
					]
				}
			},
			"response": []
		},
		{
			"name": "criação de regra de atendimento de dia especifico.",
			"request": {
				"method": "POST",
				"header": [
					{
						"key": "Content-Type",
						"value": "application/json",
						"type": "text"
					}
				],
				"body": {
					"mode": "raw",
					"raw": "{\r\n   \"dia\":\"25-1-2018\",\r\n   \"intervalos\" : [\r\n        {\r\n            \"from\":\"13:30\",\r\n            \"to\":\"14:30\"\r\n        },\r\n        {\r\n            \"from\":\"14:00\",\r\n            \"to\":\"15:00\"\r\n        },\r\n        {\r\n            \"from\":\"14:30\",\r\n            \"to\":\"15:30\"\r\n        },\r\n        {\r\n            \"from\":\"15:00\",\r\n            \"to\":\"16:00\"\r\n        }\r\n   ]\r\n}"
				},
				"url": {
					"raw": "localhost:3000/cadastro",
					"host": [
						"localhost"
					],
					"port": "3000",
					"path": [
						"cadastro"
					]
				}
			},
			"response": []
		},
		{
			"name": "criação de regra de atendimento diario.",
			"request": {
				"method": "POST",
				"header": [
					{
						"key": "Content-Type",
						"type": "text",
						"value": "application/json"
					}
				],
				"body": {
					"mode": "raw",
					"raw": "{\r\n   \"intervalos\" : [\r\n        {\r\n            \"from\":\"22:00\",\r\n            \"to\":\"23:00\"\r\n        }\r\n   ]\r\n}"
				},
				"url": {
					"raw": "localhost:3000/cadastro",
					"host": [
						"localhost"
					],
					"port": "3000",
					"path": [
						"cadastro"
					]
				}
			},
			"response": []
		},
		{
			"name": "criação de regra de atendimento semanal.",
			"request": {
				"method": "POST",
				"header": [
					{
						"key": "Content-Type",
						"type": "text",
						"value": "application/json"
					}
				],
				"body": {
					"mode": "raw",
					"raw": "{\n\t\"dias_semana\":\n\t[\n\t\t\"segunda\",\n\t\t\"quarta\"\n\t],\n\t\"intervalos\":\n\t[\n\t\t{\n\t\t\t\"from\":\"20:30\",\n\t\t\t\"to\":\"21:30\"\n\t\t\t\n\t\t}\n\t]\n}"
				},
				"url": {
					"raw": "localhost:3000/cadastro",
					"host": [
						"localhost"
					],
					"port": "3000",
					"path": [
						"cadastro"
					]
				}
			},
			"response": []
		},
		{
			"name": "Listagem de regras",
			"request": {
				"method": "GET",
				"header": [],
				"body": {
					"mode": "raw",
					"raw": ""
				},
				"url": {
					"raw": "localhost:3000/cadastro",
					"host": [
						"localhost"
					],
					"port": "3000",
					"path": [
						"cadastro"
					]
				}
			},
			"response": []
		},
		{
			"name": "Consulta de horarios disponíveis",
			"request": {
				"method": "GET",
				"header": [],
				"body": {
					"mode": "raw",
					"raw": ""
				},
				"url": {
					"raw": "localhost:3000/consulta?inicio=25-01-2018&fim=29-01-2018",
					"host": [
						"localhost"
					],
					"port": "3000",
					"path": [
						"consulta"
					],
					"query": [
						{
							"key": "inicio",
							"value": "25-01-2018"
						},
						{
							"key": "fim",
							"value": "29-01-2018"
						}
					]
				}
			},
			"response": []
		}
	]
}